…
#### State

``` r
mydata$state<- toupper(mydata$state)

mydata%>% 
  group_by(state)%>% 
  summarize(avg_price=round(mean(price)), count=n())
```

    # A tibble: 51 x 3
       state avg_price count
       <chr>     <dbl> <int>
     1 AK         1169  2095
     2 AL          881  8093
     3 AR          859  3087
     4 AZ         1051  6453
     5 CA         1744 30251
     6 CO         1471 10824
     7 CT         1338  3673
     8 DC         1810  2369
     9 DE         1275  2007
    10 FL         1219 31160
    # ... with 41 more rows
…
There are 8 categories in parking options. WE can see that valet parking
has the highest mean prices compared to others. Same as laundry options,
We decide to use this as a grouping variable in mixed effect model.
137014 cases have no available information about parking options.

#### Region

``` r
mydata%>% 
  group_by(region)%>% 
  summarize(avg_price=round(mean(price)), count=n())
```

    # A tibble: 404 x 3
       region             avg_price count
       <fct>                  <dbl> <int>
     1 abilene                  792   891
     2 akron / canton           850  1508
     3 albany                  1025  2046
     4 albuquerque              900  2053
     5 altoona-johnstown        815   245
     6 amarillo                 657  1341
     7 ames                     825   354
     8 anchorage / mat-su      1150  1654
     9 ann arbor               1249  2215
    10 annapolis               1588  2041
    # ... with 394 more rows
…
